%YAML 1.1
%TAG !u! tag:unity3d.com,2011:
--- !u!221 &22100000
AnimatorOverrideController:
  m_ObjectHideFlags: 0
  m_PrefabParentObject: {fileID: 0}
  m_PrefabInternal: {fileID: 0}
  m_Name: enemy-stalker
  m_Controller: {fileID: 9100000, guid: e2835f5e4ca9a7a498331f4eb1dd7a83, type: 2}
  m_Clips:
  - m_OriginalClip: {fileID: 7400000, guid: 5e2878103e4580f42b74cc7b3c107bc0, type: 2}
    m_OverrideClip: {fileID: 7400000, guid: 0d7eebdf68ac65e4ca5a44250e3320d4, type: 2}
  - m_OriginalClip: {fileID: 7400000, guid: 4e239551dfa530b45bc378e894141b2d, type: 2}
    m_OverrideClip: {fileID: 7400000, guid: 9930158a6572cdb43aea4c9f59550abf, type: 2}
