%YAML 1.1
%TAG !u! tag:unity3d.com,2011:
--- !u!78 &1
TagManager:
  serializedVersion: 2
  tags:
  - Fruit
  - Soda
  - Exit
  - Cans
  - Landmine
  - Enemy
  layers:
  - Default
  - TransparentFX
  - Ignore Raycast
  - 
  - Water
  - UI
  - 
  - 
  - Collision Layer
  - 
  - 
  - 
  - 
  - 
  - 
  - 
  - 
  - 
  - 
  - 
  - 
  - 
  - 
  - 
  - 
  - 
  - 
  - 
  - 
  - 
  - 
  - 
  m_SortingLayers:
  - name: Default
    uniqueID: 0
    locked: 0
  - name: Floor
    uniqueID: 1269989447
    locked: 0
  - name: food
    uniqueID: 2548512287
    locked: 0
  - name: Obstacles
    uniqueID: 2436692631
    locked: 0
  - name: characters
    uniqueID: 1759374517
    locked: 0
